<?xml version="1.0" encoding="iso-8859-1"?>
<!-- Generator: Adobe Illustrator 18.0.0, SVG Export Plug-In . SVG Version: 6.00 Build 0)  -->
<!DOCTYPE svg PUBLIC "-//W3C//DTD SVG 1.1//EN" "http://www.w3.org/Graphics/SVG/1.1/DTD/svg11.dtd">
<svg version="1.1" id="Layer_1" xmlns="http://www.w3.org/2000/svg" xmlns:xlink="http://www.w3.org/1999/xlink" x="0px" y="0px"
	 viewBox="0 0 87.656 64.487" style="enable-background:new 0 0 87.656 64.487;" xml:space="preserve">
<style type="text/css">
	.st0{fill:#FFFFFF;}
</style>
<symbol  id="New_Symbol" viewBox="-43.828 -32.244 87.656 64.487">
	<path class="st0" d="M-0.042-6.186c-12.416,0-24.832,0.008-37.247-0.008c-1.872-0.002-3.505,0.541-4.786,1.91
		c-1.716,1.833-2.182,4.014-1.354,6.364c0.817,2.32,2.531,3.677,4.981,4.052c0.385,0.059,0.779,0.081,1.169,0.081
		c24.91,0.004,49.82,0.003,74.73,0.003c3.162,0,5.687-1.992,6.261-5.095c0.732-3.962-2.262-7.054-5.519-7.273
		c-0.375-0.025-0.753-0.034-1.129-0.034C24.695-6.187,12.327-6.186-0.042-6.186z"/>
	<path class="st0" d="M0.012-19.856c12.479,0,24.957-0.007,37.436,0.008c1.611,0.002,3.006-0.478,4.241-1.502
		c2.538-2.104,2.855-6.235,0.658-8.707c-1.293-1.455-2.902-2.179-4.855-2.179c-24.989,0.004-49.977,0.012-74.966-0.008
		c-3.078-0.002-5.742,2.154-6.236,5.133c-0.584,3.518,1.684,6.482,4.84,7.136c0.531,0.11,1.09,0.114,1.636,0.115
		C-24.82-19.854-12.404-19.856,0.012-19.856z"/>
	<path class="st0" d="M0.012,32.229c12.51,0,25.02-0.018,37.529,0.014c2.711,0.007,5.188-1.775,5.994-4.3
		c1.145-3.589-1.18-7.418-4.876-7.999c-0.339-0.053-0.684-0.086-1.027-0.086c-25.082-0.004-50.165-0.005-75.247-0.002
		c-3.592,0-6.358,2.997-6.174,6.569c0.166,3.227,3.005,5.828,6.225,5.818C-25.039,32.207-12.514,32.229,0.012,32.229z"/>
</symbol>
<use xlink:href="#New_Symbol"  width="87.656" height="64.487" x="-43.828" y="-32.244" transform="matrix(1 0 0 -1 43.8282 32.2436)" style="overflow:visible;"/>
</svg>
